module gitlab.com/bluebottle/testbench

go 1.18

require (
	github.com/spf13/viper v1.11.0
	github.com/urfave/cli/v2 v2.7.1
	github.com/xanzy/go-gitlab v0.65.0
	gitlab.com/bluebottle/go-modules/misc v0.0.5
)

require (
	github.com/antzucaro/matchr v0.0.0-20210222213004-b04723ef80f0 // indirect
	github.com/cpuguy83/go-md2man/v2 v2.0.1 // indirect
	github.com/fsnotify/fsnotify v1.5.1 // indirect
	github.com/golang/protobuf v1.5.2 // indirect
	github.com/google/go-querystring v1.1.0 // indirect
	github.com/hashicorp/go-cleanhttp v0.5.2 // indirect
	github.com/hashicorp/go-retryablehttp v0.6.8 // indirect
	github.com/hashicorp/hcl v1.0.0 // indirect
	github.com/magiconair/properties v1.8.6 // indirect
	github.com/mitchellh/mapstructure v1.4.3 // indirect
	github.com/pelletier/go-toml v1.9.4 // indirect
	github.com/pelletier/go-toml/v2 v2.0.0-beta.8 // indirect
	github.com/russross/blackfriday/v2 v2.1.0 // indirect
	github.com/spf13/afero v1.8.2 // indirect
	github.com/spf13/cast v1.4.1 // indirect
	github.com/spf13/jwalterweatherman v1.1.0 // indirect
	github.com/spf13/pflag v1.0.5 // indirect
	github.com/subosito/gotenv v1.2.0 // indirect
	golang.org/x/net v0.0.0-20220412020605-290c469a71a5 // indirect
	golang.org/x/oauth2 v0.0.0-20220411215720-9780585627b5 // indirect
	golang.org/x/sys v0.0.0-20220412211240-33da011f77ad // indirect
	golang.org/x/text v0.3.7 // indirect
	golang.org/x/time v0.0.0-20191024005414-555d28b269f0 // indirect
	google.golang.org/appengine v1.6.7 // indirect
	google.golang.org/protobuf v1.28.0 // indirect
	gopkg.in/ini.v1 v1.66.4 // indirect
	gopkg.in/yaml.v2 v2.4.0 // indirect
	gopkg.in/yaml.v3 v3.0.0-20210107192922-496545a6307b // indirect
)
